module gitlab.com/BIC_Dev/nitrado-server-manager-v4

go 1.19

require (
	github.com/bwmarrin/discordgo v0.26.1
	github.com/caarlos0/env/v6 v6.9.1
	github.com/go-openapi/runtime v0.24.1
	github.com/go-openapi/strfmt v0.21.3
	github.com/google/uuid v1.3.0
	github.com/gorilla/mux v1.8.0
	github.com/mediocregopher/radix/v3 v3.8.1
	gitlab.com/BIC_Dev/guild-config-service-client v0.9.0
	gitlab.com/BIC_Dev/nitrado-service-v3-client v1.2.1
	go.uber.org/zap v1.21.0
	gopkg.in/yaml.v2 v2.4.0
)

require (
	github.com/PuerkitoBio/purell v1.1.1 // indirect
	github.com/PuerkitoBio/urlesc v0.0.0-20170810143723-de5bf2ad4578 // indirect
	github.com/asaskevich/govalidator v0.0.0-20210307081110-f21760c49a8d // indirect
	github.com/go-openapi/analysis v0.21.2 // indirect
	github.com/go-openapi/errors v0.20.3 // indirect
	github.com/go-openapi/jsonpointer v0.19.5 // indirect
	github.com/go-openapi/jsonreference v0.19.6 // indirect
	github.com/go-openapi/loads v0.21.1 // indirect
	github.com/go-openapi/spec v0.20.4 // indirect
	github.com/go-openapi/swag v0.22.3 // indirect
	github.com/go-openapi/validate v0.22.0 // indirect
	github.com/gorilla/websocket v1.4.2 // indirect
	github.com/josharian/intern v1.0.0 // indirect
	github.com/mailru/easyjson v0.7.7 // indirect
	github.com/mitchellh/mapstructure v1.4.3 // indirect
	github.com/oklog/ulid v1.3.1 // indirect
	github.com/opentracing/opentracing-go v1.2.0 // indirect
	go.mongodb.org/mongo-driver v1.10.0 // indirect
	go.uber.org/atomic v1.9.0 // indirect
	go.uber.org/multierr v1.7.0 // indirect
	golang.org/x/crypto v0.0.0-20220622213112-05595931fe9d // indirect
	golang.org/x/net v0.0.0-20220127200216-cd36cc0744dd // indirect
	golang.org/x/sys v0.0.0-20220209214540-3681064d5158 // indirect
	golang.org/x/text v0.3.7 // indirect
	golang.org/x/xerrors v0.0.0-20200804184101-5ec99f83aff1 // indirect
	gopkg.in/yaml.v3 v3.0.1 // indirect
)
